C:\Users\heckd\git\LBCOWebApp\LCBOWebApp\src\main\java\sheridan\LiquourType.java
C:\Users\heckd\git\LBCOWebApp\LCBOWebApp\src\main\java\sheridan\SelectLiquourServlet.java
C:\Users\heckd\git\LBCOWebApp\LCBOWebApp\src\main\java\sheridan\LiquourService.java
